info face="Big Bimbo NC" size=32 bold=0 italic=0 charset="" unicode=0 stretchH=100 smooth=1 aa=1 padding=0,0,0,0 spacing=1,1
common lineHeight=46 base=37 scaleW=1024 scaleH=512 pages=1 packed=0
page id=0 file="fuente_1.png"
chars count=95
char id=32   x=0     y=0     width=0     height=0     xoffset=0     yoffset=37    xadvance=6     page=0  chnl=0 
char id=92   x=0     y=0     width=11     height=36     xoffset=0     yoffset=8    xadvance=10     page=0  chnl=0 
char id=47   x=11     y=0     width=11     height=36     xoffset=0     yoffset=8    xadvance=10     page=0  chnl=0 
char id=127   x=22     y=0     width=17     height=35     xoffset=0     yoffset=8    xadvance=16     page=0  chnl=0 
char id=64   x=39     y=0     width=31     height=35     xoffset=0     yoffset=10    xadvance=31     page=0  chnl=0 
char id=124   x=70     y=0     width=4     height=35     xoffset=0     yoffset=8    xadvance=4     page=0  chnl=0 
char id=93   x=74     y=0     width=9     height=35     xoffset=0     yoffset=8    xadvance=9     page=0  chnl=0 
char id=91   x=83     y=0     width=9     height=35     xoffset=0     yoffset=8    xadvance=9     page=0  chnl=0 
char id=41   x=92     y=0     width=10     height=35     xoffset=0     yoffset=8    xadvance=9     page=0  chnl=0 
char id=40   x=102     y=0     width=9     height=35     xoffset=0     yoffset=8    xadvance=9     page=0  chnl=0 
char id=106   x=111     y=0     width=10     height=35     xoffset=0     yoffset=10    xadvance=9     page=0  chnl=0 
char id=36   x=121     y=0     width=18     height=34     xoffset=0     yoffset=8    xadvance=17     page=0  chnl=0 
char id=125   x=139     y=0     width=13     height=34     xoffset=0     yoffset=9    xadvance=13     page=0  chnl=0 
char id=123   x=152     y=0     width=13     height=34     xoffset=0     yoffset=9    xadvance=13     page=0  chnl=0 
char id=81   x=165     y=0     width=21     height=31     xoffset=0     yoffset=12    xadvance=21     page=0  chnl=0 
char id=121   x=186     y=0     width=17     height=29     xoffset=0     yoffset=18    xadvance=16     page=0  chnl=0 
char id=103   x=203     y=0     width=17     height=29     xoffset=0     yoffset=18    xadvance=16     page=0  chnl=0 
char id=38   x=220     y=0     width=20     height=28     xoffset=0     yoffset=11    xadvance=20     page=0  chnl=0 
char id=37   x=240     y=0     width=37     height=28     xoffset=0     yoffset=11    xadvance=36     page=0  chnl=0 
char id=63   x=277     y=0     width=16     height=28     xoffset=0     yoffset=11    xadvance=15     page=0  chnl=0 
char id=57   x=293     y=0     width=19     height=28     xoffset=0     yoffset=11    xadvance=18     page=0  chnl=0 
char id=56   x=312     y=0     width=19     height=28     xoffset=0     yoffset=11    xadvance=18     page=0  chnl=0 
char id=55   x=331     y=0     width=18     height=28     xoffset=0     yoffset=11    xadvance=18     page=0  chnl=0 
char id=54   x=349     y=0     width=19     height=28     xoffset=0     yoffset=11    xadvance=18     page=0  chnl=0 
char id=53   x=368     y=0     width=18     height=28     xoffset=0     yoffset=11    xadvance=18     page=0  chnl=0 
char id=52   x=386     y=0     width=21     height=28     xoffset=0     yoffset=11    xadvance=20     page=0  chnl=0 
char id=51   x=407     y=0     width=18     height=28     xoffset=0     yoffset=11    xadvance=17     page=0  chnl=0 
char id=50   x=425     y=0     width=19     height=28     xoffset=0     yoffset=11    xadvance=18     page=0  chnl=0 
char id=113   x=444     y=0     width=17     height=28     xoffset=0     yoffset=18    xadvance=16     page=0  chnl=0 
char id=112   x=461     y=0     width=17     height=28     xoffset=0     yoffset=18    xadvance=16     page=0  chnl=0 
char id=104   x=478     y=0     width=16     height=28     xoffset=0     yoffset=11    xadvance=15     page=0  chnl=0 
char id=102   x=494     y=0     width=13     height=28     xoffset=0     yoffset=11    xadvance=13     page=0  chnl=0 
char id=100   x=507     y=0     width=17     height=28     xoffset=0     yoffset=11    xadvance=16     page=0  chnl=0 
char id=98   x=524     y=0     width=17     height=28     xoffset=0     yoffset=11    xadvance=16     page=0  chnl=0 
char id=33   x=541     y=0     width=7     height=27     xoffset=0     yoffset=11    xadvance=6     page=0  chnl=0 
char id=48   x=548     y=0     width=19     height=27     xoffset=0     yoffset=12    xadvance=18     page=0  chnl=0 
char id=49   x=567     y=0     width=10     height=27     xoffset=0     yoffset=12    xadvance=10     page=0  chnl=0 
char id=105   x=577     y=0     width=7     height=27     xoffset=0     yoffset=11    xadvance=6     page=0  chnl=0 
char id=85   x=584     y=0     width=20     height=27     xoffset=0     yoffset=12    xadvance=19     page=0  chnl=0 
char id=79   x=604     y=0     width=21     height=27     xoffset=0     yoffset=12    xadvance=21     page=0  chnl=0 
char id=76   x=625     y=0     width=18     height=27     xoffset=0     yoffset=12    xadvance=18     page=0  chnl=0 
char id=74   x=643     y=0     width=16     height=27     xoffset=0     yoffset=12    xadvance=15     page=0  chnl=0 
char id=72   x=659     y=0     width=20     height=27     xoffset=0     yoffset=12    xadvance=19     page=0  chnl=0 
char id=116   x=679     y=0     width=14     height=26     xoffset=0     yoffset=13    xadvance=13     page=0  chnl=0 
char id=108   x=693     y=0     width=6     height=26     xoffset=0     yoffset=12    xadvance=5     page=0  chnl=0 
char id=107   x=699     y=0     width=18     height=26     xoffset=0     yoffset=12    xadvance=18     page=0  chnl=0 
char id=90   x=717     y=0     width=19     height=26     xoffset=0     yoffset=12    xadvance=19     page=0  chnl=0 
char id=89   x=736     y=0     width=21     height=26     xoffset=0     yoffset=12    xadvance=21     page=0  chnl=0 
char id=88   x=757     y=0     width=19     height=26     xoffset=0     yoffset=12    xadvance=19     page=0  chnl=0 
char id=87   x=776     y=0     width=27     height=26     xoffset=0     yoffset=12    xadvance=27     page=0  chnl=0 
char id=86   x=803     y=0     width=20     height=26     xoffset=0     yoffset=12    xadvance=20     page=0  chnl=0 
char id=84   x=823     y=0     width=20     height=26     xoffset=0     yoffset=12    xadvance=19     page=0  chnl=0 
char id=83   x=843     y=0     width=17     height=26     xoffset=0     yoffset=12    xadvance=17     page=0  chnl=0 
char id=82   x=860     y=0     width=20     height=26     xoffset=0     yoffset=12    xadvance=19     page=0  chnl=0 
char id=80   x=880     y=0     width=18     height=26     xoffset=0     yoffset=12    xadvance=18     page=0  chnl=0 
char id=78   x=898     y=0     width=21     height=26     xoffset=0     yoffset=12    xadvance=20     page=0  chnl=0 
char id=77   x=919     y=0     width=24     height=26     xoffset=0     yoffset=12    xadvance=24     page=0  chnl=0 
char id=75   x=943     y=0     width=21     height=26     xoffset=0     yoffset=12    xadvance=21     page=0  chnl=0 
char id=73   x=964     y=0     width=6     height=26     xoffset=0     yoffset=12    xadvance=5     page=0  chnl=0 
char id=71   x=970     y=0     width=21     height=26     xoffset=0     yoffset=12    xadvance=21     page=0  chnl=0 
char id=70   x=991     y=0     width=18     height=26     xoffset=0     yoffset=12    xadvance=18     page=0  chnl=0 
char id=69   x=0     y=36     width=18     height=26     xoffset=0     yoffset=12    xadvance=18     page=0  chnl=0 
char id=68   x=18     y=36     width=20     height=26     xoffset=0     yoffset=12    xadvance=19     page=0  chnl=0 
char id=67   x=38     y=36     width=20     height=26     xoffset=0     yoffset=12    xadvance=20     page=0  chnl=0 
char id=66   x=58     y=36     width=19     height=26     xoffset=0     yoffset=12    xadvance=18     page=0  chnl=0 
char id=65   x=77     y=36     width=21     height=26     xoffset=0     yoffset=12    xadvance=21     page=0  chnl=0 
char id=59   x=98     y=36     width=7     height=24     xoffset=0     yoffset=18    xadvance=6     page=0  chnl=0 
char id=120   x=105     y=36     width=17     height=22     xoffset=0     yoffset=18    xadvance=17     page=0  chnl=0 
char id=119   x=122     y=36     width=25     height=22     xoffset=0     yoffset=17    xadvance=24     page=0  chnl=0 
char id=118   x=147     y=36     width=20     height=22     xoffset=0     yoffset=17    xadvance=20     page=0  chnl=0 
char id=115   x=167     y=36     width=15     height=22     xoffset=0     yoffset=17    xadvance=14     page=0  chnl=0 
char id=111   x=182     y=36     width=17     height=22     xoffset=0     yoffset=17    xadvance=16     page=0  chnl=0 
char id=35   x=199     y=36     width=21     height=21     xoffset=0     yoffset=17    xadvance=20     page=0  chnl=0 
char id=62   x=220     y=36     width=17     height=21     xoffset=0     yoffset=14    xadvance=16     page=0  chnl=0 
char id=60   x=237     y=36     width=17     height=21     xoffset=0     yoffset=14    xadvance=16     page=0  chnl=0 
char id=117   x=254     y=36     width=16     height=21     xoffset=0     yoffset=18    xadvance=15     page=0  chnl=0 
char id=110   x=270     y=36     width=16     height=21     xoffset=0     yoffset=17    xadvance=15     page=0  chnl=0 
char id=109   x=286     y=36     width=25     height=21     xoffset=0     yoffset=17    xadvance=24     page=0  chnl=0 
char id=99   x=311     y=36     width=16     height=21     xoffset=0     yoffset=18    xadvance=15     page=0  chnl=0 
char id=58   x=327     y=36     width=6     height=20     xoffset=0     yoffset=18    xadvance=6     page=0  chnl=0 
char id=114   x=333     y=36     width=13     height=20     xoffset=0     yoffset=18    xadvance=13     page=0  chnl=0 
char id=97   x=346     y=36     width=15     height=20     xoffset=0     yoffset=18    xadvance=14     page=0  chnl=0 
char id=43   x=361     y=36     width=18     height=19     xoffset=0     yoffset=15    xadvance=17     page=0  chnl=0 
char id=122   x=379     y=36     width=14     height=19     xoffset=0     yoffset=19    xadvance=14     page=0  chnl=0 
char id=101   x=393     y=36     width=15     height=19     xoffset=0     yoffset=19    xadvance=15     page=0  chnl=0 
char id=61   x=408     y=36     width=17     height=16     xoffset=0     yoffset=17    xadvance=16     page=0  chnl=0 
char id=94   x=425     y=36     width=14     height=15     xoffset=0     yoffset=8    xadvance=13     page=0  chnl=0 
char id=42   x=439     y=36     width=10     height=10     xoffset=0     yoffset=9    xadvance=9     page=0  chnl=0 
char id=44   x=449     y=36     width=7     height=10     xoffset=0     yoffset=32    xadvance=6     page=0  chnl=0 
char id=39   x=456     y=36     width=6     height=10     xoffset=0     yoffset=11    xadvance=5     page=0  chnl=0 
char id=34   x=462     y=36     width=10     height=10     xoffset=0     yoffset=11    xadvance=10     page=0  chnl=0 
char id=126   x=472     y=36     width=19     height=9     xoffset=0     yoffset=21    xadvance=18     page=0  chnl=0 
char id=96   x=491     y=36     width=8     height=8     xoffset=0     yoffset=10    xadvance=7     page=0  chnl=0 
char id=46   x=499     y=36     width=6     height=7     xoffset=0     yoffset=31    xadvance=6     page=0  chnl=0 
char id=45   x=505     y=36     width=17     height=6     xoffset=0     yoffset=22    xadvance=16     page=0  chnl=0 
char id=95   x=522     y=36     width=19     height=4     xoffset=0     yoffset=42    xadvance=18     page=0  chnl=0 
kernings count=255
kerning first=121  second=84  amount=-2
kerning first=103  second=84  amount=-2
kerning first=37  second=84  amount=-3
kerning first=37  second=89  amount=-2
kerning first=63  second=74  amount=-2
kerning first=55  second=52  amount=-1
kerning first=55  second=74  amount=-4
kerning first=113  second=84  amount=-2
kerning first=112  second=55  amount=-1
kerning first=112  second=84  amount=-3
kerning first=112  second=89  amount=-2
kerning first=104  second=84  amount=-3
kerning first=104  second=89  amount=-2
kerning first=98  second=84  amount=-3
kerning first=98  second=89  amount=-3
kerning first=76  second=37  amount=-5
kerning first=76  second=84  amount=-3
kerning first=76  second=89  amount=-3
kerning first=107  second=84  amount=-3
kerning first=89  second=52  amount=-3
kerning first=89  second=65  amount=-1
kerning first=89  second=74  amount=-3
kerning first=89  second=99  amount=-3
kerning first=89  second=100  amount=-3
kerning first=89  second=101  amount=-2
kerning first=89  second=103  amount=-2
kerning first=89  second=111  amount=-2
kerning first=89  second=113  amount=-3
kerning first=86  second=65  amount=-1
kerning first=86  second=74  amount=-2
kerning first=84  second=52  amount=-2
kerning first=84  second=74  amount=-2
kerning first=84  second=97  amount=-3
kerning first=84  second=99  amount=-2
kerning first=84  second=100  amount=-3
kerning first=84  second=101  amount=-2
kerning first=84  second=103  amount=-2
kerning first=84  second=109  amount=-2
kerning first=84  second=110  amount=-2
kerning first=84  second=111  amount=-2
kerning first=84  second=112  amount=-2
kerning first=84  second=113  amount=-3
kerning first=84  second=114  amount=-2
kerning first=84  second=115  amount=-2
kerning first=84  second=117  amount=-2
kerning first=84  second=118  amount=-2
kerning first=84  second=119  amount=-2
kerning first=84  second=120  amount=-2
kerning first=84  second=121  amount=-2
kerning first=84  second=122  amount=-2
kerning first=80  second=74  amount=-5
kerning first=75  second=48  amount=-1
kerning first=75  second=52  amount=-1
kerning first=75  second=67  amount=-1
kerning first=75  second=71  amount=-1
kerning first=75  second=79  amount=-1
kerning first=75  second=81  amount=-1
kerning first=75  second=100  amount=-1
kerning first=75  second=113  amount=-1
kerning first=70  second=74  amount=-5
kerning first=70  second=100  amount=-1
kerning first=70  second=118  amount=-2
kerning first=65  second=84  amount=-2
kerning first=65  second=86  amount=-1
kerning first=65  second=89  amount=-3
kerning first=65  second=118  amount=-1
kerning first=120  second=84  amount=-3
kerning first=119  second=63  amount=-1
kerning first=119  second=84  amount=-3
kerning first=118  second=55  amount=-4
kerning first=118  second=63  amount=-3
kerning first=118  second=74  amount=-2
kerning first=118  second=84  amount=-3
kerning first=118  second=90  amount=-1
kerning first=115  second=84  amount=-3
kerning first=111  second=84  amount=-3
kerning first=111  second=89  amount=-2
kerning first=117  second=84  amount=-3
kerning first=110  second=84  amount=-3
kerning first=110  second=89  amount=-1
kerning first=109  second=84  amount=-3
kerning first=109  second=89  amount=-1
kerning first=99  second=84  amount=-3
kerning first=114  second=55  amount=-4
kerning first=114  second=63  amount=-1
kerning first=114  second=74  amount=-3
kerning first=114  second=84  amount=-3
kerning first=114  second=90  amount=-2
kerning first=97  second=84  amount=-3
kerning first=122  second=84  amount=-3
kerning first=101  second=84  amount=-3
kerning first=101  second=89  amount=-2
